<?xml version="1.0" encoding="UTF-8" standalone="no"?>
<svg
   width="18.66mm"
   height="15mm"
   version="1.1"
   viewBox="0 0 18.66 15"
   id="svg12"
   sodipodi:docname="logo-colored-textless.svg"
   inkscape:version="1.4 (e7c3feb100, 2024-10-09)"
   inkscape:export-filename="logo-red-textless.png"
   inkscape:export-xdpi="96"
   inkscape:export-ydpi="96"
   xml:space="preserve"
   xmlns:inkscape="http://www.inkscape.org/namespaces/inkscape"
   xmlns:sodipodi="http://sodipodi.sourceforge.net/DTD/sodipodi-0.dtd"
   xmlns="http://www.w3.org/2000/svg"
   xmlns:svg="http://www.w3.org/2000/svg"><defs
     id="defs12" /><sodipodi:namedview
     id="namedview12"
     pagecolor="#ffffff"
     bordercolor="#000000"
     borderopacity="0.25"
     inkscape:showpageshadow="2"
     inkscape:pageopacity="0.0"
     inkscape:pagecheckerboard="0"
     inkscape:deskcolor="#d1d1d1"
     inkscape:document-units="mm"
     inkscape:zoom="2.8527072"
     inkscape:cx="-8.062517"
     inkscape:cy="71.686292"
     inkscape:window-width="1680"
     inkscape:window-height="978"
     inkscape:window-x="0"
     inkscape:window-y="0"
     inkscape:window-maximized="1"
     inkscape:current-layer="svg12" /><g
     id="g1"><g
       transform="matrix(0.10393651,0,0,0.10393651,-99.529596,164.00524)"
       fill="#83b9f5"
       fill-rule="evenodd"
       shape-rendering="auto"
       id="g9"
       style="fill:#83b9f5;fill-opacity:1"><path
         d="m 1024.1,-1553.3 v 7.5 h 10.309 v -7.5 z"
         color="#000000"
         color-rendering="auto"
         image-rendering="auto"
         solid-color="#000000"
         style="text-indent:0;text-decoration-line:none;text-decoration-style:solid;text-decoration-color:#000000;text-transform:none;white-space:normal;isolation:auto;mix-blend-mode:normal;fill:#83b9f5;fill-opacity:1"
         id="path1" /><path
         d="m 1015.9,-1541.3 v 7.5 h 18.457 v -7.5 z"
         color="#000000"
         color-rendering="auto"
         image-rendering="auto"
         solid-color="#000000"
         style="text-indent:0;text-decoration-line:none;text-decoration-style:solid;text-decoration-color:#000000;text-transform:none;white-space:normal;isolation:auto;mix-blend-mode:normal;fill:#83b9f5;fill-opacity:1"
         id="path2" /><path
         d="m 994.26,-1529.2 v 7.5 h 40.125 v -7.5 z"
         color="#000000"
         color-rendering="auto"
         image-rendering="auto"
         solid-color="#000000"
         style="text-indent:0;text-decoration-line:none;text-decoration-style:solid;text-decoration-color:#000000;text-transform:none;white-space:normal;isolation:auto;mix-blend-mode:normal;fill:#83b9f5;fill-opacity:1"
         id="path3" /><path
         d="m 972.15,-1517.2 v 7.5 h 62.232 v -7.5 z"
         color="#000000"
         color-rendering="auto"
         image-rendering="auto"
         solid-color="#000000"
         style="text-indent:0;text-decoration-line:none;text-decoration-style:solid;text-decoration-color:#000000;text-transform:none;white-space:normal;isolation:auto;mix-blend-mode:normal;fill:#83b9f5;fill-opacity:1"
         id="path4" /><path
         d="m 957.56,-1505.1 v 7.5 h 76.818 v -7.5 z"
         color="#000000"
         color-rendering="auto"
         image-rendering="auto"
         solid-color="#000000"
         style="text-indent:0;text-decoration-line:none;text-decoration-style:solid;text-decoration-color:#000000;text-transform:none;white-space:normal;isolation:auto;mix-blend-mode:normal;fill:#83b9f5;fill-opacity:1"
         id="path5" /><path
         d="m 981.86,-1493 v 7.5 h 52.523 v -7.5 z"
         color="#000000"
         color-rendering="auto"
         image-rendering="auto"
         solid-color="#000000"
         style="text-indent:0;text-decoration-line:none;text-decoration-style:solid;text-decoration-color:#000000;text-transform:none;white-space:normal;isolation:auto;mix-blend-mode:normal;fill:#83b9f5;fill-opacity:1"
         id="path6" /><path
         d="m 1003.2,-1481 v 7.5 h 31.158 v -7.5 z"
         color="#000000"
         color-rendering="auto"
         image-rendering="auto"
         solid-color="#000000"
         style="text-indent:0;text-decoration-line:none;text-decoration-style:solid;text-decoration-color:#000000;text-transform:none;white-space:normal;isolation:auto;mix-blend-mode:normal;fill:#83b9f5;fill-opacity:1"
         id="path7" /><path
         d="m 994.78,-1468.9 v 7.5 h 39.6 v -7.5 z"
         color="#000000"
         color-rendering="auto"
         image-rendering="auto"
         solid-color="#000000"
         style="text-indent:0;text-decoration-line:none;text-decoration-style:solid;text-decoration-color:#000000;text-transform:none;white-space:normal;isolation:auto;mix-blend-mode:normal;fill:#83b9f5;fill-opacity:1"
         id="path8" /><path
         d="m 1015.2,-1457.4 v 7.5 h 19.135 v -7.5 z"
         color="#000000"
         color-rendering="auto"
         image-rendering="auto"
         solid-color="#000000"
         style="text-indent:0;text-decoration-line:none;text-decoration-style:solid;text-decoration-color:#000000;text-transform:none;white-space:normal;isolation:auto;mix-blend-mode:normal;fill:#83b9f5;fill-opacity:1"
         id="path9" /></g><g
       transform="matrix(-0.36348816,0,0,0.36348816,79.681869,-173.46892)"
       fill="#f38577"
       id="g11"
       style="fill:#f38577;fill-opacity:1"><path
         d="m 188.32,478.62 h 9.275 l -4.6375,7.0969 z"
         id="path10"
         style="fill:#f38577;fill-opacity:1" /><path
         d="m 192.36,479.93 v 37.214 h 1.1934 V 479.93 Z"
         color="#000000"
         color-rendering="auto"
         fill-rule="evenodd"
         image-rendering="auto"
         shape-rendering="auto"
         solid-color="#000000"
         style="text-indent:0;text-decoration-line:none;text-decoration-style:solid;text-decoration-color:#000000;text-transform:none;white-space:normal;isolation:auto;mix-blend-mode:normal;fill:#f38577;fill-opacity:1"
         id="path11" /></g><path
       d="M 11.359749,2.544584 C 11.201403,2.540134 11.070634,2.6672949 11.070676,2.8257029 V 13.034403 c 1.03e-4,0.229627 0.260596,0.362258 0.446374,0.227299 l 7.031024,-5.1041429 c 0.154767,-0.1122531 0.154767,-0.3429036 0,-0.4551567 L 11.51705,2.5981556 c -0.04584,-0.033277 -0.100668,-0.051948 -0.157301,-0.05353 z"
       color="#000000"
       color-rendering="auto"
       fill="#527eb2"
       image-rendering="auto"
       shape-rendering="auto"
       solid-color="#000000"
       style="text-indent:0;text-decoration-line:none;text-decoration-style:solid;text-decoration-color:#000000;text-transform:none;white-space:normal;isolation:auto;mix-blend-mode:normal;fill:#537db1;fill-opacity:1;stroke-width:0.10344"
       id="path12" /></g></svg>
